%YAML 1.1
%TAG !u! tag:unity3d.com,2011:
--- !u!74 &7400000
AnimationClip:
  m_ObjectHideFlags: 0
  m_CorrespondingSourceObject: {fileID: 0}
  m_PrefabInstance: {fileID: 0}
  m_PrefabAsset: {fileID: 0}
  m_Name: Walk down
  serializedVersion: 6
  m_Legacy: 0
  m_Compressed: 0
  m_UseHighQualityCurve: 1
  m_RotationCurves: []
  m_CompressedRotationCurves: []
  m_EulerCurves: []
  m_PositionCurves: []
  m_ScaleCurves: []
  m_FloatCurves: []
  m_PPtrCurves:
  - curve:
    - time: 0
      value: {fileID: 21300000, guid: 1c8813d31ffd98a479e46073593bb548, type: 3}
    - time: 0.05
      value: {fileID: 21300000, guid: ffdabf894642609439a83cae41ebe5f4, type: 3}
    - time: 0.1
      value: {fileID: 21300000, guid: a633d9117f0da0a46afd495caa56480b, type: 3}
    - time: 0.15
      value: {fileID: 21300000, guid: b39cc9afe8b1158488e79f9437dd54c4, type: 3}
    - time: 0.2
      value: {fileID: 21300000, guid: aae21f2829497a544a1abf7a5d1d3611, type: 3}
    - time: 0.25
      value: {fileID: 21300000, guid: 0165c22192061224492cf27d2dd04612, type: 3}
    - time: 0.3
      value: {fileID: 21300000, guid: d4b6816da57fdf14885d832343a13a3a, type: 3}
    - time: 0.35
      value: {fileID: 21300000, guid: df3c0100ab1b29749bfece931bd4cde7, type: 3}
    attribute: m_Sprite
    path: 
    classID: 212
    script: {fileID: 0}
  m_SampleRate: 20
  m_WrapMode: 0
  m_Bounds:
    m_Center: {x: 0, y: 0, z: 0}
    m_Extent: {x: 0, y: 0, z: 0}
  m_ClipBindingConstant:
    genericBindings:
    - serializedVersion: 2
      path: 0
      attribute: 0
      script: {fileID: 0}
      typeID: 212
      customType: 23
      isPPtrCurve: 1
    pptrCurveMapping:
    - {fileID: 21300000, guid: 1c8813d31ffd98a479e46073593bb548, type: 3}
    - {fileID: 21300000, guid: ffdabf894642609439a83cae41ebe5f4, type: 3}
    - {fileID: 21300000, guid: a633d9117f0da0a46afd495caa56480b, type: 3}
    - {fileID: 21300000, guid: b39cc9afe8b1158488e79f9437dd54c4, type: 3}
    - {fileID: 21300000, guid: aae21f2829497a544a1abf7a5d1d3611, type: 3}
    - {fileID: 21300000, guid: 0165c22192061224492cf27d2dd04612, type: 3}
    - {fileID: 21300000, guid: d4b6816da57fdf14885d832343a13a3a, type: 3}
    - {fileID: 21300000, guid: df3c0100ab1b29749bfece931bd4cde7, type: 3}
  m_AnimationClipSettings:
    serializedVersion: 2
    m_AdditiveReferencePoseClip: {fileID: 0}
    m_AdditiveReferencePoseTime: 0
    m_StartTime: 0
    m_StopTime: 0.4
    m_OrientationOffsetY: 0
    m_Level: 0
    m_CycleOffset: 0
    m_HasAdditiveReferencePose: 0
    m_LoopTime: 1
    m_LoopBlend: 0
    m_LoopBlendOrientation: 0
    m_LoopBlendPositionY: 0
    m_LoopBlendPositionXZ: 0
    m_KeepOriginalOrientation: 0
    m_KeepOriginalPositionY: 1
    m_KeepOriginalPositionXZ: 0
    m_HeightFromFeet: 0
    m_Mirror: 0
  m_EditorCurves: []
  m_EulerEditorCurves: []
  m_HasGenericRootTransform: 0
  m_HasMotionFloatCurves: 0
  m_Events: []
